[
	{"id":0,"model":"5xbt","normalMap":"normal","methods":["img0","img1","img2","img3"],"gaugePosition":[{"x":-17,"y":28},{"x":95,"y":19},{"x":46,"y":7},{"x":28,"y":4}],"leftText":"resorcinol","rightText":"","closer":""},
	{"id":1,"model":"5oax","normalMap":"normal","methods":["img0","img1","img2","img3"],"gaugePosition":[{"x":67,"y":105},{"x":127,"y":115},{"x":29,"y":124},{"x":132,"y":93}],"leftText":"resveratrol","rightText":"","closer":""},
	{"id":2,"model":"6ej7","normalMap":"normal","methods":["img0","img1","img2","img3"],"gaugePosition":[{"x":-156,"y":77},{"x":-139,"y":64},{"x":-105,"y":68},{"x":-266,"y":71}],"leftText":"phytoalexin","rightText":"","closer":""},
	{"id":3,"model":"6exm","normalMap":"normal","methods":["img0","img1","img2","img3"],"gaugePosition":[{"x":-111,"y":104},{"x":-204,"y":119},{"x":-49,"y":106},{"x":-16,"y":127}],"leftText":"stilbenetriol","rightText":"","closer":""}
]